…
## Basic usage

One starts by populating a DataFrame with the package info. You may want to first update the environment with `]up` (or similar) to get the current General Registry info.

```julia
julia> using DataFrames

julia> using PkgMining

julia> df = pkg_mining()
Mining 6371 packages: 100%|█████████████████████████████████████████████| Time: 0:00:04
6371×8 DataFrame
  Row │ name                           uuid                               owner                ⋯
      │ String                         String                             String               ⋯
──────┼─────────────────────────────────────────────────────────────────────────────────────────
    1 │ COSMA_jll                      0efae8bf-39e6-5d65-b05d-c8947f4c…  JuliaBinaryWrappers  ⋯
  ⋮   │               ⋮                                ⋮                           ⋮           ⋱
 6371 │ TopicModelsVB                  dad468f8-6d63-5d40-b2c4-48631a3e…  ericproffitt
                                                                 5 columns and 6369 rows omitted
```
…
julia> df[df.name .== "BenchmarkTools", :owner] # owner of package `BenchmarkTools`
1-element Vector{String}:
 "JuliaCI"

julia> nrow(df[df.owner .== "JuliaAudio", :]) # number of packages owned by JuliaAudio
4
```

We can also build another DataFrame with the owners and the number of packages they own (Thanks to ).

```julia
julia> df_owners = combine(groupby(df, :owner), nrow => :pkgs_owned)
1772×2 DataFrame
  Row │ owner                pkgs_owned 
      │ String               Int64      
──────┼─────────────────────────────────
    1 │ JuliaBinaryWrappers         822
    2 │ cite-architecture             7
    3 │ trixi-framework               6
    4 │ wsphillips                    3
  ⋮   │          ⋮               ⋮
 1769 │ focusenergy                   1
 1770 │ chrisbrahms                   1
 1771 │ Datax-package                 1
 1772 │ ericproffitt                  1
                       1764 rows omitted
…
